^D:\SKILLBOX\UNREAL ENGINE 4\ЗАДАЧИ\ДЗ 16\REPOS_16\SKILLBOXTASK_16\X64\DEBUG\SKILLBOXTASK_16.OBJ
D:\SKILLBOX\UNREAL ENGINE 4\Задачи\ДЗ 16\REPOS_16\SKILLBOXTASK_16\X64\DEBUG\SKILLBOXTASK_16.EXE
D:\SKILLBOX\UNREAL ENGINE 4\Задачи\ДЗ 16\REPOS_16\SKILLBOXTASK_16\X64\DEBUG\SKILLBOXTASK_16.ILK
D:\SKILLBOX\UNREAL ENGINE 4\Задачи\ДЗ 16\REPOS_16\SKILLBOXTASK_16\X64\DEBUG\SKILLBOXTASK_16.PDB
